<svg style="width:24px;height:24px" viewBox="0 0 24 24" xmlns="http://www.w3.org/2000/svg">
  <path fill="#00ff00" d="M12 20.375a6 6 0 0 1-6-6c0-4 6-10.75 6-10.75s6 6.75 6 10.75a6 6 0 0 1-6 6z"/>
</svg>
