<svg xmlns="http://www.w3.org/2000/svg" style="width:24px;height:24px" viewBox="0 0 24 24">
  <path fill="#000000" d="m12 3.77-.75.84S9.97 6.06 8.68 7.94C7.39 9.82 6 12.07 6 14.23a6 6 0 0 0 6 6 6 6 0 0 0 6-6c0-2.16-1.39-4.41-2.68-6.29-1.29-1.88-2.57-3.33-2.57-3.33L12 3.77m0 3.13c.44.52.84.95 1.68 2.17 1.21 1.76 2.32 4 2.32 5.16 0 2.22-1.78 4-4 4-2.22 0-4-1.78-4-4 0-1.16 1.11-3.4 2.32-5.16.84-1.22 1.24-1.65 1.68-2.17Z"/>
</svg>
