<svg style="width:24px;height:24px" viewBox="0 0 24 24" xmlns="http://www.w3.org/2000/svg">
  <path fill="#000000" d="M11.5 21.7C4.9 15.8 1 12.3 1 7.6V7c-.6.9-1 2-1 3.2C0 14 3.4 17.1 10 23zm.9 0c6.657-5.9 10.591-9.4 10.591-14.1V7C23.597 7.9 24 9 24 10.2c0 3.8-3.43 6.9-10.087 12.8z"/>
</svg>
