<svg style="width:24px;height:24px" viewBox="0 0 24 24" xmlns="http://www.w3.org/2000/svg">
  <path fill="#ff0000" d="m 12,12.0925 -0.7975,-0.726 C 8.37,8.798 6.5,7.0985 6.5,5.025 6.5,3.3255 7.831,2 9.525,2 10.482,2 11.4005,2.4455 12,3.144 12.5995,2.4455 13.518,2 14.475,2 16.169,2 17.5,3.3255 17.5,5.025 c 0,2.0735 -1.87,3.773 -4.7025,6.3415 z"/>
  <path fill="#00ff00" d="M 6.0095,21.684405 A 4.0095,4.0095 0 0 1 2,17.674905 c 0,-2.672999 4.0095,-7.183686 4.0095,-7.183686 0,0 4.0095,4.510687 4.0095,7.183686 a 4.0095,4.0095 0 0 1 -4.0095,4.0095 z"/>
  <path fill="#0000ff" d="M 18.0095,10.491219 A 4.0095,4.0095 0 0 0 14,14.500718 c 0,2.673 4.0095,7.183687 4.0095,7.183687 0,0 4.0095,-4.510686 4.0095,-7.183686 a 4.0095,4.0095 0 0 0 -4.0095,-4.0095 z"/>
</svg>
