<svg style="width:24px;height:24px" viewBox="0 0 24 24" xmlns="http://www.w3.org/2000/svg">
    <path fill="#000000" d="M14.88 16.29 13 18.17v-3.76m0-8.58 1.88 1.88L13 9.58m4.71-1.87L12 2h-1v7.58L6.41 5 5 6.41 10.59 12 5 17.58 6.41 19 11 14.41V22h1l5.71-5.71-4.3-4.29 4.3-4.29z"/>
</svg>
