<svg style="width:24px;height:24px" viewBox="0 0 24 24" xmlns="http://www.w3.org/2000/svg">
  <path fill="#000000" d="M9 3v1H4v2h1v13a2 2 0 0 0 2 2h10a2 2 0 0 0 2-2V6h1V4h-5V3H9M7 6h10v13H7V6m2 2v9h2V8H9m4 0v9h2V8h-2z"/>
</svg>
