<svg style="width:24px;height:24px" viewBox="0 0 24 24" xmlns="http://www.w3.org/2000/svg">
  <path fill="#000000" d="M7.5 2.83C4.42 2.83 2 5.24 2 8.33c0 3.77 3.4 6.86 8.55 11.53L12 21.17l1.45-1.31C18.6 15.19 22 12.1 22 8.33c0-3.09-2.42-5.5-5.5-5.5-1.74 0-3.41.81-4.5 2.07-1.09-1.26-2.76-2.07-4.5-2.07zm4.5 4v4h3l-3 7v-4H9l3-7z"/>
</svg>
