<svg style="width:24px;height:24px" viewBox="0 0 24 24" xmlns="http://www.w3.org/2000/svg">
  <path fill="#000000" d="M19 3h-1V1h-2v2H8V1H6v2H5c-1.11 0-2 .89-2 2v14a2 2 0 0 0 2 2h14c1.1 0 2-.9 2-2V5a2 2 0 0 0-2-2m0 16H5V8h14v11m-7-9v2h4v3h-4v2l-4-3.5 4-3.5z"/>
</svg>
