<svg style="width:24px;height:24px" viewBox="0 0 24 24" xmlns="http://www.w3.org/2000/svg">
  <path fill="#000000" d="M19 19H5V8h14m-3-7v2H8V1H6v2H5c-1.11 0-2 .89-2 2v14a2 2 0 0 0 2 2h14a2 2 0 0 0 2-2V5a2 2 0 0 0-2-2h-1V1"/>
  <path fill="#000000" d="M11.347 11.214v1.97h1.32c.747 0 1.12.357 1.12 1.07v2.19c0 .707-.373 1.06-1.12 1.06h-1.27c-.753 0-1.13-.353-1.13-1.06v-5.4c0-.7.377-1.05 1.13-1.05h1.24c.74 0 1.11.35 1.11 1.05v1.3h-1.06v-1.13c0-.14-.027-.233-.08-.28-.047-.047-.14-.07-.28-.07h-.62c-.14 0-.233.023-.28.07-.053.047-.08.14-.08.28zm1.36 5.07v-1.89c0-.133-.023-.223-.07-.27-.047-.053-.143-.08-.29-.08h-1v2.24c0 .14.027.233.08.28.047.04.14.06.28.06h.64c.147 0 .243-.02.29-.06.047-.047.07-.14.07-.28z"/>
</svg>
