<svg style="width:24px;height:24px" viewBox="0 0 24 24" xmlns="http://www.w3.org/2000/svg">
  <path fill="#000000" d="M19 8H5v11h14zm-1-7v2h1a2 2 0 0 1 2 2v14a2 2 0 0 1-2 2H5a2 2 0 0 1-2-2V5c0-1.11.89-2 2-2h1V1h2v2h8V1zm-6.171 7.516a6 6 0 0 1 6 6h-6z"/>
</svg>
