{
    "00": {
        "001": "Bienvenue",
        "002": "Bienvenue sur UBPM, Le Gestionnaire Universel de la Pression Artérielle pour Windows, Linux et macOS !",
        "003": "Grâce à cette application, vous pouvez gérer les données de votre tension artérielle depuis le confort de votre ordinateur personnel sans transmettre des informations privées sur votre santé à des entreprises et les révéler sur Internet.<p>Les enregistrements peuvent être <a href='01-04.html'>entrés manuellement</a>, <a href='02-01.html'>lus</a> à partir d'un fichier ou directement <a href='01-03.html'>lus</a> à partir du tensiomètre.<p>Les tensiomètres suivants sont actuellement pris en charge :",
        "004": "Fabricant",
        "006": "Description",
        "007": "Interface",
        "005": "Modèle",
        "008": "D'autres moniteurs de pression artérielle peuvent être ajoutés via le <a href='03.html'>interface plugin</a>.<p>Si vous avez un tensiomètre qui n'est pas encore pris en charge, que vous connaissez son protocole de transmission et que vous pouvez le programmer, je serai heureux de vous aider à le développer. Si vous avez déjà programmé un plugin et que vous souhaitez le mettre à la disposition d'autres utilisateurs, contactez-moi.<p> Même si vous ne savez pas programmer vous-même mais que vous trouvez l'application utile, vous êtes invité à soutenir la poursuite du développement par un petit <a href='01-07.html'>don</a>. Celle-ci peut être utilisée, par exemple, pour acheter et intégrer d'autres tensiomètres. Les tensiomètres jetés et non pris en charge auparavant, qui peuvent être défectueux mais sont toujours reconnus par l'ordinateur, sont également les bienvenus. Merci beaucoup !<p>Découvrez maintenant l'application et ses fonctions dans les pages suivantes.<p>Interactive <font color='blue'><u>références</u></font> seront bleues, <font color='green'>conseils</font> vert, <font color='red'>avertissements</font> rouge et <font color='brown'>configurations</font> marron …"
    },
    "03": {
        "011": "Les Valeurs doivent bien sûr être adaptées à l'appareil existant : dans l'exemple 0590 serait l'ID du fabricant OMRON et 0090 l'ID de l'appareil M400IT/M500IT. 9 octets sont envoyés au tensiomètre et 25 octets sont lus comme réponse.</p><h4>Des commandes bettercap utiles pour commencer avec Bluetooth pourraient être:</h4>",
        "012": "Les valeurs doivent bien sûr être adaptées à l'appareil existant : dans l'exemple 00:DE:AD:BE:EF:00 serait l'adresse MAC de l'appareil, DB5B55E0AEE711E1965E0002A5D5C51B l'UUID du service et 08000000100018 la valeur à écrire. <p>Je peux volontiers aider pour les questions, mais je ne peux pas programmer des plugins pour des tensiomètres que je ne possède pas!</p> <p>Cependant, tant que la communication via hidapitester ou bettercap fonctionne et que les données sont trouvées dans les réponses, je peux l'essayer à l'aveugle et vous tester.<p class='info'><b>Note</b> : Un périphérique USB peut également être partagé sur Internet en utilisant usbip, je peux donc y accéder.",
        "001": "Plugins pour appareils",
        "003": "installer le logiciel du fabricant et l'analyseur de protocole Wireshark (https://wireshark.org)",
        "004": "lire les valeurs mesurées par le tensiomètre via le logiciel du fabricant et enregistrer le trafic de données dans Wireshark (USB) ou dans les options du développeur Android (Bluetooth)",
        "005": "évaluer le trafic de données collectées entre l'ordinateur et le tensiomètre dans Wireshark",
        "006": "détecter les commandes et les réponses envoyées",
        "009": "programmer un plugin basé sur les résultats ci-dessus",
        "002": "La lecture directe des valeurs mesurées par le tensiomètre se fait via des plugins supplémentaires. Afin de programmer un plugin pour un tensiomètre spécifique, le protocole de transmission doit d'abord être connu.<p>Pour le déterminer, on pourrait procéder comme suit :",
        "008": "reproduire la communication à l'aide d'outils externes tels que hidapitester (https://github.com/todbot/hidapitester) pour les dispositifs USB-HID ou bettercap (https://www.bettercap.org) pour les dispositifs Bluetooth",
        "007": "trouver les valeurs mesurées dans les réponses",
        "010": "Cela peut paraître simple, mais ce n'est généralement pas le cas. ;-)<p>J'ai également eu besoin de 1 à 2 jours jusqu'à ce que je puisse adresser mon M500IT - donc soyez patient et n'abandonnez pas immédiatement ! <p><h4>Voici quelques conseils supplémentaires : </h4><p>Lisez les valeurs du tensiomètre et convertissez-les de la décimale à l'hexadécimale, car on les retrouve mieux dans l'enregistrement des données.<p>Éventuellement, il faut aussi ajouter une certaine valeur (par exemple 25 à la pression artérielle systolique) pour arriver à la valeur attendue. De plus, les valeurs peuvent être composées de plusieurs octets ou bits ! <p><h4>Les commandes utiles de hidapitester pour commencer avec USB-HID pourraient être : </h4>"
    },
    "02-03-02": {
        "001": "Imprimer",
        "002": "Sélectionnez l'imprimante souhaitée dans la boîte de dialogue d'impression et modifiez les paramètres ou les propriétés comme vous le souhaitez.<p>Après un court temps de préparation, la sortie sur l'imprimante démarre et les impressions peuvent être reçues peu de temps après."
    },
    "01": {
        "001": "Interface Utilisateur",
        "003": "Fenêtre Principale",
        "004": "Paramètres",
        "006": "Importer depuis l'Entrée",
        "002": "L'application se compose de la fenêtre principale et de diverses boîtes de dialogue qui fournissent certaines fonctions.<br>Sélectionnez l'élément sur lequel vous souhaitez en savoir plus :<br>",
        "007": "Analyse des Données",
        "005": "Importer depuis l'Appareil",
        "008": "Mise à jour en Ligne"
    },
    "01-01": {
        "004": "Tableau",
        "001": "Fenêtre Principale",
        "003": "Graphique",
        "005": "Statistique",
        "002": "Vous disposez ici d'un aperçu des données de pression artérielle collectées. L'interface utilisateur a été conçue pour être aussi simple que possible afin que même les utilisateurs plus âgés puissent s'y retrouver rapidement.<p>Toutes les fonctions importantes sont facilement accessibles via la barre d'outils. Les fonctions dont on a moins souvent besoin sont accessibles via la barre de menu.<p>La fenêtre principale est divisée en 3 vues :",
        "006": "Si les données d'un partenaire sont également gérées, l'analyse peut être commutée via les symboles pour les utilisateurs (<font color='red'>A/B</font>) dans la barre d'outils. L'écran LCD (<font color='red'>C</font>) affiche le nombre de tous les enregistrements de données pour l'utilisateur actuellement sélectionné.<p>Le mode de temps préféré est défini via le symbole (<font color='red'>D</font>) situé à côté. Par exemple . \"Hebdomadaire\" (lundi - dimanche) ou \"7 derniers jours\" (par exemple mercredi - mardi) peuvent être affichés.<p>La sélection de la date et de l'heure (<font color='red'>E</font>) peut être utilisée pour passer directement au jour ou à l'heure souhaités. </p> <p>Dans le cas contraire, la période souhaitée peut être définie à l'aide des boutons situés en bas, puis modifiée à l'aide de la molette de la souris ou des boutons de retour/avance (<font color='red'>F/G</font>) situés en haut. En maintenant la touche SHIFT, vous pouvez passer directement au premier/dernier enregistrement."
    },
    "02-01-03": {
        "002": "Un fichier JSON doit être structuré comme suit :",
        "003": "Les données enregistrées pour l'utilisateur 1 sont situés dans la zone \"U1\", pour l'utilisateur 2 dans \"U2\".<p>Chaque donnée enregistrée est située dans une zone \"{ }\". Celle-ci contient la date et l'heure sous la forme JJ.MM.AAAA et HH.MM.SS.<p>Viennent ensuite les relevés de la pression artérielle systolique (sys) et diastolique (dia) et de la fréquence cardiaque (bpm).<p>Enfin, la signalisation de l'irrégularité (ihb) et du caché (inv) et un commentaire facultatif (msg).",
        "001": "Importer depuis fichier JSON"
    },
    "02-01-04": {
        "001": "Importer depuis fichier SQL",
        "003": "Les données enregistrées pour l'utilisateur 1 se trouvent dans le tableau \"U1\", pour l'utilisateur 2 dans \"U2\".<p>Il contient la date et l'heure sous la forme JJ.MM.AAAA et HH.MM.SS, les valeurs mesurées pour la pression artérielle systolique et diastolique ainsi que le rythme cardiaque, la signalisation pour irrégulier et caché et un commentaire facultatif.",
        "002": "Un fichier SQL doit être structuré comme suit :"
    },
    "02-02": {
        "001": "Exporter Données",
        "002": "Les valeurs mesurées peuvent être exportées dans les formats <a href='02-02-01.html'>CSV</a>, <a href='02-02-02.html'>XML</a>, <a href='02-02-03.html'>JSON</a> et <a href='02-02-04.html'>SQL</a> pour l'archivage ou le partage. Le format à privilégier dépend de l'utilisation souhaitée.<h4>Exporter vers un fichier</h4>Sélectionnez le chemin d'accès où le fichier doit être enregistré dans la boîte de dialogue d'exportation. Par défaut, le chemin des documents est prédéfini. Tous les fichiers qui y existent déjà dans le format de fichier sélectionné devraient être affichés.</p> <p>Entrez maintenant le nom de fichier souhaité ou acceptez la valeur par défaut suggérée.</p> <p>Enregistrez vos enregistrements dans le format sélectionné."
    },
    "02-03": {
        "001": "Imprimer Données",
        "002": "Si vous souhaitez présenter vos données au médecin traitant pour évaluation, vous pouvez bien entendu les <a href='02-03-02.html'>Imprimer</a><p> . Pour économiser du papier, il est recommandé de créer et de vérifier un <a href='02-03-01.html'>aperçu</a> avant d'imprimer.<p>L'aperçu ou l'impression correspond toujours à l'affichage actuellement sélectionné. Par conséquent, passez à l'utilisateur souhaité via la barre d'outils et définissez la période à visualiser avant d'effectuer l'action souhaitée.<p>Dans les <a href='01-02-04.html'>Réglages</a> vous pouvez spécifier si la fréquence cardiaque doit être imprimée avec la pression artérielle ou sur une feuille séparée."
    },
    "01-01-01": {
        "001": "Montrer Graphique",
        "003": "Les valeurs par défaut sont délimitées par des zones rouges (battements de cœur), vertes (pression artérielle diastolique) et bleues (pression artérielle systolique).<p>Passer la souris sur un point de mesure permet d'afficher l'heure de la mesure, les données de la pression artérielle systolique & diastolique ainsi que la pression du pouls, la fréquence cardiaque et un commentaire facultatif.",
        "002": "Dans cette vue, les données pour l'utilisateur et la période sélectionnés sont affichées sous forme de graphique :",
        "004": "En cliquant sur un point de mesure, il est possible de le supprimer, de le masquer ou de le modifier.",
        "005": "Un clic droit ouvre le menu contextuel, qui est expliqué plus en détail sous <a href='01-02-04.html'>Réglages</a>."
    },
    "02-02-02": {
        "001": "Exporter vers XML",
        "002": "Un fichier XML est adapté aux cas d'utilisation suivants, par exemple :",
        "004": "affichage interactif dans un navigateur web",
        "003": "traitement ultérieur automatisé par des scripts ou des applications"
    },
    "01-01-02": {
        "002": "Dans cette vue, les données pour l'utilisateur et la période sélectionnés sont affichées sous forme de tableau :",
        "001": "Montrer Tableau",
        "003": "En cliquant sur l'en-tête de colonne respectif, l'ordre de tri peut être ajusté en conséquence, par exemple en ascendant par battement de cœur.<p>Doubler le clic sur un champ d'une ligne permet de modifier la valeur.<p>En cliquant avec le bouton droit de la souris sur une ligne, l'enregistrement de données peut être supprimé ainsi que masqué ou affiché via le menu contextuel. Les ensembles de données cachés sont ignorés dans le diagramme et la vue statistique."
    },
    "01-01-03": {
        "001": "Montrer Statistique",
        "002": "Dans cette vue, les données de l'utilisateur et la période sélectionnés sont affichées sous forme de statistiques :",
        "003": "Un clic sur la dernière barre de la plage de valeurs permet de basculer entre moyenne et médiane.<p>Un clic sur n'importe quel segment de cercle le met en évidence et fait basculer l'étiquetage.<p>En cliquant sur la légende inférieure, l'affichage peut être complètement basculé.<p>Un clic droit ouvre le menu contextuel, qui est expliqué plus en détail sous<<a href='01-02-06.html'>Réglages</a>."
    },
    "02-02-03": {
        "002": "Un fichier JSON est adapté aux cas d'utilisation suivants, par exemple :",
        "004": "de préférence pour JavaScript",
        "001": "Exporter vers JSON",
        "003": "traitement ultérieur automatisé par des scripts ou des applications"
    },
    "02-02-04": {
        "001": "Exporter vers SQL",
        "002": "Un fichier SQL est adapté aux cas d'utilisation suivants, par exemple :",
        "003": "sauvegarde/restauration directe pour UBPM",
        "004": "traitement externe dans les applications de base de données"
    },
    "02-02-01": {
        "001": "Exporter vers CSV",
        "002": "Un fichier CSV est adapté aux cas d'utilisation suivants, par exemple :",
        "003": "traitement ultérieur automatisé par des scripts ou des applications",
        "004": "traitement manuel dans une feuille de calcul"
    },
    "02-01-02": {
        "003": "Les données enregistrées pour l'utilisateur 1 se trouvent dans la zone \"U1\", pour l'utilisateur 2 dans \"U2\".<p>Chaque donnée enregistrée se trouve dans une zone \"record\". Celle-ci contient la date et l'heure sous la forme JJ.MM.AAAA et HH.MM.SS.<p>Viennent ensuite les relevés de la pression artérielle systolique (sys) et diastolique (dia) et de la fréquence cardiaque (bpm).<p>Enfin, la signalisation de l'irrégularité (ihb) et du caché (inv) et un commentaire facultatif (msg).",
        "002": "Un fichier XML doit être structuré comme suit :",
        "001": "Importation à partir de XML"
    },
    "01-02": {
        "001": "Réglages",
        "002": "Tous les paramètres peuvent être gérés et configurés de manière centralisée ici. Passez le pointeur de la souris sur une option pour afficher une brève description.</p> <p>Les paramètres sont répartis dans les domaines suivants :",
        "004": "Les valeurs par défaut respectives sont indiquées par ( ), les valeurs de texte libre par %.",
        "003": "Une fois que tout a été ajusté selon vos souhaits, vous pouvez enregistrer la configuration en appuyant sur le bouton \"Enregistrer\" et quitter le dialogue. Les valeurs par défaut de la vue actuelle peuvent être restaurées via \"Reset\". Si des modifications ont été apportées et que l'on quitte le dialogue sans enregistrer, on vous demandera à nouveau si vous voulez vraiment les abandonner.</p><h4>Structure du fichier de configuration</h4>Tous les réglages sont enregistrés dans le fichier de configuration \"ubpm.ini\" dans le répertoire personnel de l'utilisateur sous \".config/LazyT\". Ce fichier est au format texte et présente la structure suivante :"
    },
    "01-02-01": {
        "001": "Base de données",
        "002": "Tous les paramètres relatifs à la base de données sont effectués ici :",
        "003": "La base de données contient tous les enregistrements des deux utilisateurs.<p>Si le chemin par défaut doit être modifié, sélectionnez ici le chemin souhaité.<p>En option, la base de données peut également être cryptée. Pour ce faire, activez l'option et saisissez un mot de passe. Vérifiez le mot de passe via le bouton à côté de l'entrée pour la sécurité !<p class='warn'><b>Caution</b> : N'oubliez jamais ce mot de passe, car sans lui, l'accès à la base de données n'est plus possible !<p> class='info'><b>Note</b> : Il faut choisir une base de données cryptée, par exemple pour être sauvegardée dans un cloud public.<p>La base de données est sauvegardée automatiquement si l'option correspondante a été activée. Cette sauvegarde peut être quotidienne, hebdomadaire ou mensuelle et le nombre de copies configuré est conservé. Les copies plus anciennes sont purgées en conséquence."
    },
    "01-02-06": {
        "001": "Statistique",
        "002": "Tous les paramètres relatifs aux statistiques sont définis ici :",
        "003": "Si la valeur médiane doit être affichée au lieu de la valeur moyenne, vous pouvez le faire ici.<p>En outre, il est possible de déterminer si la légende du bas doit afficher les valeurs ou les descriptions.<p class='info'><b>Note</b> : Ces paramètres peuvent également être modifiés directement dans la fenêtre principale par un clic droit.</p><h4>Valeur moyenne</h4>La valeur moyenne est calculée en additionnant toutes les valeurs mesurées, puis en divisant cette somme par le nombre de valeurs mesurées. Elle est donc sensible aux valeurs aberrantes.<p>Exemple : 5 valeurs mesurées avec 130, 120, 190, 120, 120<p>Le résultat comme une somme de 680 divisée par le compte 5 donne le résultat 136, c'est-à-dire une valeur qui n'a jamais été mesurée et falsifiée par la valeur aberrante de 190.<h4>Valeur médiane</h4>La valeur médiane est la valeur mesurée qui se situe au milieu lorsque toutes les valeurs sont triées par taille. L'avantage de cette méthode est sa robustesse face aux valeurs aberrantes.<p>Exemple : 5 valeurs mesurées avec 130, 120, 190, 120, 120<p>Triée dans l'ordre croissant 120, 120, 120, 130, 190 la valeur du milieu donne le résultat 120. Donc une valeur qui a été vraiment mesurée et qui est aussi apparue le plus souvent."
    },
    "01-05": {
        "016": "Mouvement",
        "001": "Analyse des données",
        "002": "Afin de pouvoir évaluer des enregistrements de données spécifiques, une requête SQL peut être lancée :",
        "003": "Sélectionnez l'une des requêtes SQL prédéfinies ou saisissez votre propre requête et confirmez-la avec la touche RETURN.<p>Le résultat de votre requête est maintenant affiché ou un message d'erreur s'affiche. Dans le cas d'un message d'erreur, modifiez les paramètres de la requête jusqu'à ce que des enregistrements de données appropriés soient trouvés.<p>Les requêtes suivantes peuvent être évaluées :<br>",
        "004": "Paramètre",
        "005": "Signification",
        "006": "Tension artérielle systolique",
        "007": "Tension artérielle diastolique",
        "008": "Pression du pouls",
        "009": "Battement de cœur",
        "010": "Rythme cardiaque irrégulier",
        "011": "non visible",
        "012": "Commentaire",
        "013": "Date",
        "014": "Heure",
        "015": "En cliquant sur l'en-tête de la colonne concernée, l'ordre de tri peut être ajusté en conséquence, par exemple par ordre croissant de battements de cœur."
    },
    "01-02-02": {
        "001": "Utilisateur",
        "002": "Tous les paramètres pertinents pour l'utilisateur sont définis ici :",
        "003": "Pour classer les valeurs mesurées, saisissez ici le sexe et le groupe d'âge. Si vous souhaitez que votre nom réel apparaisse sur l'impression, saisissez-le également.<p>Pour une meilleure classification des valeurs mesurées par le médecin, vous pouvez également saisir des informations supplémentaires. Pour ce faire, activez l'option et ajoutez la date de naissance, la taille et le poids.<p>Si votre partenaire est également géré, passez à l'utilisateur 2 et saisissez les informations pour lui aussi."
    },
    "01-03": {
        "001": "Importer depuis l'appareil",
        "004": "créer le fichier <b>\"/etc/udev/rules.d/60-ubpm.rules\"</b> en tant que root (remplacer idVendor et idProduct par ses propres valeurs !)",
        "005": "Déconnecter et reconnecter le tensiomètre",
        "002": "Les valeurs de la pression artérielle peuvent être lues directement à partir du tensiomètre, à condition que celui-ci dispose d'une interface correspondante et qu'un plugin soit disponible :",
        "003": "Un plugin peut être conçu librement par le responsable respectif et donc avoir une apparence différente d'un appareil à l'autre. L'illustration montre le plugin pour l'appareil Omron M400IT / M500IT.<p>Après le démarrage, les informations affichées par le tensiomètre s'affichent. L'importation des données peut être lancée par le bouton \"Importer\" et interrompue par \"Annuler\". L'état actuel est affiché dans la barre de progression.<p>Pour le dépannage, un fichier journal peut être écrit si vous le souhaitez. Celui-ci est créé dans le répertoire TEMP avec le nom \"ubpm-import.log\" et contient toute la communication entre l'application et le tensiomètre.<p>Une fois l'importation terminée, la boîte de dialogue est automatiquement fermée et un bref résumé est affiché sur le nombre de jeux de données lus, leur répartition entre les utilisateurs 1 et 2 et les valeurs ignorées (par exemple, déjà connues).<p class='info'><b>Note</b> : Si un tensiomètre USB ne peut être utilisé qu'en tant que root sous Linux, créez une règle udev :"
    },
    "01-02-03": {
        "001": "Appareil",
        "002": "Tous les paramètres relatifs à l'appareil sont définis ici :",
        "003": "Si vous avez un tensiomètre pris en charge, vous pouvez l'activer ici pour lire directement les valeurs mesurées. Certaines informations relatives au tensiomètre sélectionné s'affichent, ce qui permet d'afficher le site Web du fabricant ou de contacter le mainteneur du plugin par e-mail.<p>Si vous n'êtes pas sûr que le tensiomètre soit le bon, vous pouvez afficher sa photo et la comparer avec la vôtre.<p>En outre, cela vous donne un accès immédiat au manuel du tensiomètre."
    },
    "01-02-04": {
        "001": "Graphique",
        "002": "Tous les réglages relatifs aux graphiques sont effectués ici :",
        "004": "Les valeurs seuils pour la pression artérielle et la fréquence cardiaque peuvent être réglées ici par l'utilisateur.",
        "005": "Pour la fréquence cardiaque, vous pouvez spécifier si elle doit apparaître dans la vue et si elle doit être imprimée sur une feuille séparée.",
        "003": "Indiquez si le X-axis doit s'adapter dynamiquement aux valeurs mesurées ou s'arrêter toujours statiquement à 200.La dynamique a l'avantage de permettre de mieux distinguer les petites zones.<p>En outre, des zones colorées peuvent être affichées ou masquées pour l'orientation des valeurs mesurées. Les valeurs seuils à cet effet peuvent être définies dans les onglets suivants.<p>Il est également possible de définir ici si les valeurs mesurées doivent apparaître sous forme de symboles interactifs (pour la suppression ou l'affichage d'informations), ainsi que la couleur et la taille.<p>Il est également possible de définir si les valeurs mesurées sont reliées par des lignes et quelle largeur.<p class='info'><b>Note</b> : Ces paramètres peuvent également être modifiés directement dans la fenêtre principale par un clic droit."
    },
    "01-02-05": {
        "001": "Tableau",
        "002": "Tous les réglages relatifs au tableau sont effectués ici :",
        "003": "Si vos valeurs mesurées dépassent un certain seuil, elles seront marquées en rouge dans la vue et dans l'impression.<p>Vous pouvez ici ajuster ces seuils vers le bas ou vers le haut si nécessaire. Les valeurs de seuil prédéfinies ne doivent normalement pas être modifiées."
    },
    "01-02-07": {
        "001": "E-Mail",
        "002": "Tous les paramètres relatifs aux e-mails sont définis ici :",
        "003": "En plus de l'impression, vous pouvez également envoyer vos données sous forme d'e-mail directement au cabinet médical.<p>Pour ce faire, entrez l'adresse e-mail du destinataire et modifiez le sujet et le message selon vos idées.<p>La variable $USER est ensuite remplacée par le nom d'utilisateur configuré.<p class='info'><b>Note</b> : Cette variable peut également être supprimée si elle n'est pas nécessaire.<p>Sur la base des variables $CHART, $TABLE et $STATS, le PDF correspondant est ensuite joint. Par exemple, si aucun tableau ne doit être envoyé, supprimez la variable $TABLE du message.<p class='warn'><b>Attention</b> : Au moins une des 3 variables doit être présente ! <p>Le client de messagerie du système est utilisé pour l'envoi. Assurez-vous que les fichiers *.EML y sont liés. En outre, le client de messagerie doit prendre en charge le drapeau \"X-Unsent\" pour que le fichier EML généré puisse être envoyé."
    },
    "01-02-08": {
        "001": "Plugin",
        "002": "Tous les paramètres relatifs aux plugins sont définis ici :",
        "003": "Celles-ci sont également directement configurables dans le plugin et peuvent être définies ici au cas où le plugin ne démarre plus en raison d'une erreur.<p>Toutes les options devraient être auto-explicatives et ne nécessitent pas de description supplémentaire."
    },
    "01-04": {
        "001": "Importation depuis l'entrée",
        "002": "Si vous souhaitez saisir manuellement une ou plusieurs valeurs mesurées, vous pouvez le faire ici :",
        "003": "Pour un plus grand nombre de valeurs, l'importation via un <a href='02-01.html'>fichier</a> doit plutôt être privilégiée.<p>Définissez l'heure souhaitée et saisissez les différentes valeurs de pression artérielle. En outre, déterminez si la mesure présente des irrégularités et, le cas échéant, saisissez un commentaire sur la mesure.<p>A l'aide du bouton \"Créer\", il est maintenant possible de créer l'enregistrement de données ou de le supprimer à nouveau avec \"Supprimer\".<p>Lors de la saisie de plusieurs valeurs, l'option info peut être désactivée afin de ne pas devoir confirmer le résultat à chaque fois."
    },
    "01-06": {
        "001": "Mise à jour en ligne",
        "002": "Si une nouvelle version a été trouvée pendant la vérification de la mise à jour, la note suivante apparaît :",
        "003": "Les détails énumèrent toutes les informations importantes concernant les nouvelles fonctions ou les problèmes corrigés. Vous pouvez décider si la mise à jour doit être installée ou ignorée.<p>En sélectionnant \"Télécharger\", la nouvelle version est chargée et la progression actuelle est affichée. Le processus peut être annulé à tout moment si nécessaire. Une fois terminé, la nouvelle version peut être lancée automatiquement à partir du répertoire de téléchargement après confirmation. Si nécessaire, copiez manuellement la mise à jour dans un autre répertoire par la suite.<p class='info'><b>Note</b> : Aucune donnée n'est transmise au serveur mais seulement un petit fichier JSON est chargé qui contient les informations sur la version !"
    },
    "02": {
        "001": "Gestion des données",
        "002": "Les enregistrements peuvent être <a href='02-01.html'>importés</a>, <a href='02-02.html'>exportés</a>, <a href='02-04.html'>migrés</a> et <a href='02-03.html'>imprimés</a>."
    },
    "02-01": {
        "001": "Importer des données",
        "002": "Les valeurs mesurées peuvent entrer dans l'application de différentes manières : manuelle <a href='01-04.html'>entrée</a>, d'un fichier <a href='02-01-01.html'>CSV</a>, <a href='02-01-02.html'>XML</a>, <a href='02-01-03.html'>JSON</a> or <a href='02-01-04.html'>SQL</a>, ainsi que directement à partir d'un appareil compatible</a>.<p><h4>Importation de l'entrée</h4>La saisie manuelle est utile, par exemple, lorsqu'il faut ajouter une mesure externe chez le médecin.<h4>Importation depuis un fichier</h4>L'importation à partir d'un fichier est rarement nécessaire, par exemple lorsque l'application est utilisée pour la première fois et que des données provenant d'une autre source doivent encore être lues ou qu'une sauvegarde doit être restaurée après une nouvelle installation.<p>Sélectionnez le chemin contenant le fichier à importer dans la boîte de dialogue d'importation. Par défaut, le chemin des documents est prédéfini.<p>Sélectionnez ensuite le type de fichier souhaité : CSV, XML, JSON ou SQL. Maintenant, tous les fichiers correspondant au type de fichier devraient être affichés dans le dossier sélectionné. Ouvrez le fichier souhaité pour l'importation. Une fois l'importation terminée, la boîte de dialogue est automatiquement fermée et un bref résumé s'affiche sur le nombre d'enregistrements de données lus, leur répartition entre les utilisateurs 1 et 2 et les valeurs ignorées (par exemple, déjà connues).<h4>Importer depuis un appareil</h4>En fonctionnement normal, les données doivent être importées directement de l'appareil et ajoutées à celles qui existent déjà. De cette façon, vous obtenez un enregistrement continu sur n'importe quelle durée, même si le tensiomètre lui-même ne dispose que d'une mémoire limitée par utilisateur."
    },
    "02-02-05": {
        "001": "Exporter en PDF",
        "003": "Archivage de vues spécifiques",
        "002": "Un fichier PDF est adapté aux cas d'utilisation suivants, par exemple :"
    },
    "02-04": {
        "001": "Migrer les données",
        "002": "Les mesures déjà existantes peuvent être migrées à partir du logiciel du fabricant :",
        "003": "Exportez d'abord vos données du programme précédemment utilisé sous forme de fichier CSV. Si seul le format XLS est proposé, utilisez-le et convertissez-le ensuite au format CSV avec un tableur comme Excel.<p>Chargez ensuite ce fichier et sélectionnez le programme correspondant dans la liste s'il est disponible. Les programmes suivants sont actuellement pris en charge :",
        "004": "Si votre programme n'est pas encore supporté, vous devez définir les paramètres et les positions vous-même. Pour ce faire, regardez le fichier CSV et essayez de trouver les paramètres et positions corrects en utilisant les exemples de programmes. Utilisez la sélection \"Custom\" pour cela, car elle sera sauvegardée et restaurée. Vous pouvez également m'envoyer le fichier CSV/XLS afin que je puisse prendre en charge le programme directement.<p>Dès que la migration de test ne donne plus d'erreurs et que les valeurs correctes sont affichées en conséquence, la migration peut être lancée.<p><p><p class='info'><b>Note</b> : Si le nom du fichier contient le fabricant, le programme correspondant est automatiquement sélectionné. En outre, l'utilisateur 2 est automatiquement sélectionné, si un 2 est contenu.<p><h4>Explication des paramètres de date et d'heure</h4>",
        "018": "Heure, 0...23 / 1...12",
        "031": "active le champ de la langue, éventuellement la saisie ISO 639-1 comme par exemple \"fr\" est requise",
        "008": "Jour,1...31",
        "009": "Jour,01...31",
        "019": "Heure, 00...23 / 01...12",
        "026": "Milliseconde, 0...999",
        "011": "Jour long, par exemple lundi",
        "015": "Mois long, par exemple Janvier",
        "010": "Jour court, par exemple Lun",
        "012": "Mois, 1...12",
        "013": "Mois, 01...12",
        "014": "Mois court, par exemple Jan",
        "016": "Année 00...99",
        "017": "Année xxxx",
        "020": "Heure, 0...23",
        "027": "Milliseconde, 000...999",
        "030": "Fuseau horaire, par exemple CEST",
        "029": "AM/PM plus haut",
        "028": "AM/PM plus bas",
        "005": "Paramètre",
        "006": "Signification",
        "007": "Commentaire",
        "021": "Heure, 00...23",
        "022": "Minute, 0...59",
        "023": "Minute, 00...59",
        "024": "Seconde, 0...59",
        "025": "Seconde, 00...59"
    },
    "02-03-01": {
        "001": "Prévisualisation",
        "002": "Afin de s'assurer que la sortie correspond réellement à la forme souhaitée, générez d'abord un aperçu de la vue respective avant d'imprimer.",
        "003": "Si la vue correspond au résultat souhaité, la sortie vers l'imprimante peut être lancée en appuyant sur le symbole de l'imprimante en haut à droite."
    },
    "01-02-09": {
        "001": "Mise à jour",
        "002": "Tous les paramètres relatifs à la mise à jour sont définis ici :",
        "003": "Chaque fois que l'application est lancée, elle peut vérifier automatiquement si une nouvelle version est disponible.<p>Si vous souhaitez que l'information ne soit affichée que si le résultat est positif, désactivez l'option ci-dessous. Cependant, cela supprimera également tout message d'avertissement ou d'erreur ! <p class='info'><b>Note</b> : Le test peut également être appelé manuellement à tout moment via la barre de menu et affichera alors toujours des messages d'information, d'avertissement et d'erreur."
    },
    "02-01-01": {
        "001": "Importation depuis un CSV",
        "002": "Un fichier CSV doit être structuré comme suit :",
        "003": "Si une ligne commence par un \"1\", c'est pour l'utilisateur 1, un \"2\" représente l'utilisateur 2 (USER).<p>La date (DATE) et l'heure (TIME) suivent sous la forme JJ.MM.AAAA et HH.MM.SS. <p>Viennent ensuite les valeurs mesurées pour la pression artérielle systolique (SYS) et diastolique (DIA) et la fréquence cardiaque (BPM).<p>Enfin, il y a la signalisation pour irrégulier (IHB) et caché (INV) ainsi qu'un commentaire facultatif (MSG)."
    },
    "01-07": {
        "002": "Si vous souhaitez soutenir le projet, vous pouvez le faire ici :",
        "001": "Don",
        "003": "L'élaboration et le maintien de ce programme demandent beaucoup de temps et d'efforts. C'est pourquoi, en guise de remerciement, vous pouvez faire un don de n'importe quel montant.<p>Il y a plusieurs façons de faire un don, choisissez celle qui est la plus facile pour vous et suivez les instructions..<p>Les dons peuvent être effectués directement sur votre PC (en cliquant sur les boutons) ou via votre appareil mobile (en scannant le code QR).<p>Merci  !<p class='info'><b>Note</b> : Toutes les fonctions sont disponibles sans restriction, aucune publicité n'est affichée et aucune donnée n'est collectée, même si vous ne faites pas de don."
    }
}
