{
    "00": {
        "001": "Benvenuto",
        "006": "Descrizione",
        "007": "Interfaccia",
        "003": "Con questa applicazione puoi gestire i tuoi dati sulla pressione sanguigna comodamente dal tuo computer di casa senza trasmettere informazioni private sulla tua salute alle aziende e rivelarle su Internet.<p>I record possono essere <a href='01-04.html'>inseriti</a> manualmente, <a href='02-01.html'>letti</a> da un file o <a href='01-03.html'>letti</a> direttamente dallo sfigmomanometro.<p>Al momento sono supportati i seguenti sfigmomanometri:",
        "005": "Modello",
        "002": "Benvenuto in UBPM, l'Universal Blood Pressure Manager per Windows, Linux e macOS!",
        "004": "Produttore",
        "008": "È possibile aggiungere ulteriori misuratori della pressione sanguigna tramite l'<a href='03.html'>interfaccia plugin</a>.<p>Se si dispone di un misuratore della pressione sanguigna che non è ancora supportato, conoscerne il protocollo di trasmissione e programmare, Sarò felice di aiutarti con lo sviluppo. Se hai già programmato un plugin e desideri renderlo disponibile ad altri utenti, contattami.<p>Anche se non puoi programmare da solo ma trovi utile l'applicazione, sei libero di supportare l'ulteriore sviluppo con una piccola donazione. Questo può essere utilizzato ad esempio per acquistare e integrare ulteriori misuratori di pressione sanguigna. Sono accettati anche misuratori della pressione sanguigna scartati e precedentemente non supportati, che potrebbero essere difettosi ma vengono comunque riconosciuti dal computer. Grazie mille!<p>Ora scopri di più sull'applicazione e le sue funzioni nelle pagine seguenti.<p>I <font color='blue'><u>riferimenti</u></font> interattivi saranno blu , <font color='green'>suggerimenti</font> verde, <font color='red'>avvertimenti</font> rosso e <font color='brown'>configurazioni</font> marrone…"
    },
    "01": {
        "001": "Interfaccia utente",
        "002": "L'applicazione è composta dalla finestra principale e da varie finestre di dialogo che forniscono determinate funzioni.<p>Seleziona l'elemento su cui vorresti saperne di più:<br>",
        "003": "Finestra Principale",
        "004": "Impostazioni",
        "005": "Importa dal dispositivo",
        "006": "Importa da input",
        "008": "Aggiornamento Online",
        "007": "Analisi dei dati"
    },
    "01-01": {
        "001": "Finestra principale",
        "003": "Grafico",
        "004": "Tabella",
        "005": "Statistica",
        "002": "Qui hai una panoramica dei dati raccolti sulla pressione sanguigna. L'interfaccia utente è stata progettata per essere il più semplice possibile in modo che anche gli utenti più anziani possano orientarsi rapidamente.<p>È possibile accedere comodamente a tutte le funzioni importanti tramite la barra degli strumenti. Le funzioni che sono necessarie meno frequentemente possono essere raggiunte tramite la barra dei menu.<p>La finestra principale è suddivisa in 3 viste:",
        "006": "Se vengono gestiti anche i dati di un partner, l'analisi può essere commutata tramite i simboli per gli utenti (<font color='red'>A/B</font>) nella barra degli strumenti. Il display LCD (<font color='red'>C</font>) mostra il numero di tutti i record di dati per l'utente attualmente selezionato.<p>La modalità temporale preferita viene impostata tramite il simbolo (<font color='red' >D</font>) accanto ad esso. Per esempio. È possibile visualizzare \"Settimanale\" (lunedì - domenica) o \"Ultimi 7 giorni\" (es. mercoledì - martedì).<p>È possibile utilizzare la selezione di data e ora (<font color='red'>E</font>) per passare direttamente al giorno o all'ora desiderati. <p>Altrimenti, il periodo desiderato può essere impostato utilizzando i pulsanti in basso e quindi modificato utilizzando la rotellina del mouse o i pulsanti avanti/indietro (<font color='red'>F/G</font>) in alto . Tenendo premuto il tasto MAIUSC si passa direttamente al primo/ultimo record."
    },
    "01-01-01": {
        "001": "Vista Grafico",
        "002": "In questa visualizzazione, i dati per l'utente e il periodo selezionati vengono visualizzati sotto forma di grafico:",
        "003": "I valori predefiniti sono delimitati da aree rosse (battito cardiaco), verdi (pressione arteriosa diastolica) e blu (pressione arteriosa sistolica).<p>Tenendo il mouse su un punto di misurazione, vengono visualizzati l'ora della misurazione, i dati per la pressione sanguigna sistolica e diastolica, nonché la pressione del polso, la frequenza cardiaca e un commento opzionale.",
        "005": "Facendo clic con il pulsante destro del mouse si apre il menu contestuale, spiegato più dettagliatamente in <a href='01-02-04.html'>Impostazioni</a>.",
        "004": "Cliccando su un punto di misura, può essere cancellato, nascosto o modificato."
    },
    "01-01-02": {
        "001": "Vista tabella",
        "002": "In questa vista, i dati per l'utente e il periodo selezionati vengono visualizzati come una tabella:",
        "003": "Facendo clic sull'intestazione della rispettiva colonna, l'ordinamento può essere modificato di conseguenza, ad es. ascendente per heartbeat.<p>Facendo doppio clic su un campo di una riga è possibile modificare il valore.<p>Facendo clic con il pulsante destro del mouse su una riga, è possibile eliminare il record di dati così come nascosto o mostrato di nuovo tramite il menu contestuale. I set di dati nascosti vengono ignorati nel diagramma e nella visualizzazione statistica."
    },
    "01-01-03": {
        "001": "Visualizzazione statistica",
        "002": "In questa vista, i dati per l'utente e il periodo selezionati vengono visualizzati come statistica:",
        "003": "Facendo clic sull'ultima barra nell'intervallo di valori si alterna tra media e mediana.<p>Fare clic su un segmento qualsiasi del cerchio lo evidenzia e alterna l'etichettatura.<p>Facendo clic sulla legenda inferiore, è possibile cambiare completamente la visualizzazione.<p> Un clic con il pulsante destro del mouse apre il menu contestuale, spiegato più dettagliatamente in <a href='01-02-06.html'>Impostazioni</a>."
    },
    "01-02": {
        "001": "Impostazioni",
        "002": "Tutte le impostazioni possono essere gestite e configurate centralmente qui. Passa il puntatore del mouse su un'opzione per visualizzare una breve descrizione.<p>Le impostazioni sono suddivise nelle seguenti aree:",
        "004": "I rispettivi valori predefiniti sono indicati in ( ), valori di testo libero con %.",
        "003": "Dopo che tutto è stato regolato secondo i tuoi desideri, puoi salvare la configurazione premendo il pulsante \"Salva\" ed uscire dalla finestra di dialogo. I valori predefiniti della vista corrente possono essere ripristinati tramite \"Reset\". Se sono state apportate modifiche e si esce dalla finestra di dialogo senza salvare, verrà nuovamente chiesto se si desidera davvero eliminarle.<p><h4>Struttura del file di configurazione</h4>Tutte le impostazioni sono memorizzate nel file di configurazione \"ubpm. ini\" nella directory home dell'utente in \".config/LazyT\". Il file è in formato testo e ha la seguente struttura:"
    },
    "01-02-01": {
        "001": "Banca dati",
        "002": "Tutte le impostazioni rilevanti del database vengono effettuate qui:",
        "003": "Il database contiene tutti i record per entrambi gli utenti.<p>Se il percorso predefinito deve essere modificato, selezionare qui il percorso desiderato.<p>Il database può anche essere crittografato opzionalmente. Per fare ciò, attiva l'opzione e inserisci una password. Controlla la password tramite il pulsante accanto alla voce per sicurezza!<p class='warn'><b>Attenzione</b>: non dimenticare mai questa password, perché senza di essa l'accesso al database non è più possibile!<p> È necessario selezionare un database crittografato, ad esempio per il backup in un cloud pubblico."
    },
    "01-02-02": {
        "001": "Utente",
        "002": "Tutte le impostazioni rilevanti per l'utente vengono effettuate qui:",
        "003": "Per classificare i valori misurati, inserire qui il sesso e la fascia di età. Se vuoi che il tuo vero nome appaia sulla stampa, inseriscilo anche tu.<p>Per una migliore classificazione dei valori misurati dal medico, puoi anche inserire ulteriori informazioni. Per fare ciò, attiva l'opzione e aggiungi data di nascita, altezza e peso.<p>Se anche il tuo partner è amministrato, passa all'utente 2 e inserisci le informazioni anche per lui/lei."
    },
    "01-02-04": {
        "001": "Grafico",
        "002": "Tutte le impostazioni rilevanti del grafico vengono effettuate qui:",
        "004": "I valori di soglia per la pressione sanguigna e le Pulsazioni possono essere regolati qui per utente.",
        "005": "Per il battito cardiaco puoi specificare se deve apparire nella vista e deve essere stampato su un foglio separato.",
        "003": "Specificare se l'asse X deve adattarsi dinamicamente ai valori misurati o terminare sempre staticamente a 200. La dinamica ha il vantaggio che le aree più piccole sono meglio distinguibili.<p>Inoltre, le aree colorate possono essere mostrate o nascoste per l'orientamento della misura i valori. I valori di soglia per questo possono essere impostati nelle seguenti schede.<p>Se i valori misurati devono apparire come simboli interattivi (per la cancellazione o la visualizzazione di informazioni) e che colore e dimensione possono anche essere definiti qui.<p>Se i valori misurati sono collegati con linee e quale larghezza può anche essere impostata.<p class='info'><b>Nota</b>: queste impostazioni possono anche essere modificate direttamente nella finestra principale facendo clic con il pulsante destro del mouse."
    },
    "01-02-05": {
        "001": "Tabella",
        "002": "Tutte le impostazioni rilevanti per la tabella vengono effettuate qui:",
        "003": "Se i tuoi valori misurati superano una certa soglia, saranno contrassegnati in rosso nella visualizzazione e nella stampa.<p>Qui puoi regolare queste soglie verso il basso o verso l'alto, se necessario. Normalmente i valori di soglia preimpostati non devono essere modificati."
    },
    "01-02-06": {
        "001": "Statistica",
        "002": "Tutte le impostazioni relative alle statistiche vengono effettuate qui:",
        "003": "Se il valore mediano deve essere visualizzato al posto del valore medio, questo può essere cambiato qui.<p>Inoltre, è possibile determinare se la legenda in basso deve visualizzare i valori o le descrizioni.<p class='info'> <b>Nota</b>: queste impostazioni possono essere modificate anche direttamente nella finestra principale facendo clic con il pulsante destro del mouse.</p><h4>Valore medio</h4>Il valore medio viene calcolato sommando tutti i valori misurati e quindi dividendo la somma per il numero di valori misurati. È quindi suscettibile di valori anomali.<p>Esempio: 5 valori misurati con 130, 120, 190, 120, 120<p>Risultato come somma di 680 diviso per il conteggio 5 dà il risultato 136, ovvero un valore che non è mai stato misurato e falsificato dal valore anomalo 190.<h4>Valore mediano</h4>Il valore mediano è il valore misurato che si trova nel mezzo quando tutti i valori sono ordinati per dimensione. Il vantaggio è la robustezza rispetto ai valori anomali.<p>Esempio: 5 valori misurati con 130, 120, 190, 120, 120<p>Ordinati in ordine crescente 120, 120, 120, 130, 190 il valore al centro dà il risultato 120. Quindi un valore che si misurava veramente e si verificava anche più spesso."
    },
    "01-02-07": {
        "001": "E-Mail",
        "002": "Tutte le impostazioni rilevanti per le e-mail vengono effettuate qui:",
        "003": "Oltre alla stampa puoi anche inviare i tuoi dati come e-mail direttamente allo studio del medico.<p>Per farlo, inserisci l'indirizzo e-mail del destinatario e cambia oggetto e messaggio secondo le tue idee.<p>La variabile $USER viene successivamente sostituito dal nome utente configurato.<p class='info'><b>Nota</b>: questa variabile può anche essere eliminata se non richiesta.<p>Sulla base delle variabili $CHART, $TABLE e $STATS il PDF corrispondente viene successivamente allegato. Ad esempio, se non deve essere inviata alcuna tabella, rimuovere la variabile $TABLE dal messaggio.<p class='warn'><b>Attenzione</b>: deve essere presente almeno una delle 3 variabili!<p>La per l'invio viene utilizzato il client di posta elettronica del sistema. Assicurati che i file *.EML siano collegati ad esso. Inoltre, il client di posta deve supportare il flag \"X-Unsent\" in modo che il file EML generato possa essere inviato."
    },
    "01-02-08": {
        "001": "Plugin",
        "002": "Tutte le impostazioni relative al plugin vengono effettuate qui:",
        "003": "Questi sono anche configurabili direttamente nel plugin e possono essere impostati qui nel caso in cui il plug-in non si avvii più a causa di un errore.<p>Tutte le opzioni dovrebbero essere autoesplicative e non richiedono ulteriore descrizione."
    },
    "01-02-09": {
        "001": "Aggiorna",
        "002": "Tutte le impostazioni rilevanti per l'aggiornamento vengono effettuate qui:",
        "003": "Ad ogni avvio l'applicazione può verificare automaticamente se è disponibile una nuova versione.<p>Se si desidera visualizzare solo le informazioni in caso di esito positivo, disattivare l'opzione sottostante. Tuttavia, questo eliminerà anche eventuali messaggi di avviso o di errore!<p class='info'><b>Nota</b>: il test può anche essere richiamato manualmente in qualsiasi momento tramite la barra dei menu e visualizzerà sempre le informazioni , messaggi di avviso e di errore."
    },
    "01-03": {
        "001": "Importa dal dispositivo",
        "002": "I valori della pressione sanguigna possono essere letti direttamente dal misuratore di pressione sanguigna, a condizione che abbia un'interfaccia corrispondente e sia disponibile un plugin:",
        "004": "crea il file <b>\"/etc/udev/rules.d/60-ubpm.rules\"</b> come root (sostituisci idVendor e idProduct con i propri valori!)",
        "003": "Un plugin può essere progettato liberamente dal rispettivo manutentore e quindi avere un aspetto diverso da dispositivo a dispositivo. L'illustrazione mostra il plug-in per Omron M400IT / M500IT.<p>Dopo l'avvio, vengono visualizzate le informazioni di lettura del misuratore di pressione sanguigna. L'importazione dei dati può essere avviata tramite il pulsante \"Importa\" e interrotta tramite \"Annulla\". Lo stato attuale viene visualizzato tramite la barra di avanzamento.<p>Per la risoluzione dei problemi, se lo si desidera, è possibile scrivere un file di registro. Questo viene creato nella directory TEMP con il nome \"ubpm-import.log\" e contiene l'intera comunicazione tra l'applicazione e lo sfigmomanometro.<p>Al termine dell'importazione, la finestra di dialogo si chiude automaticamente e viene visualizzato un breve riepilogo visualizzato sul numero di set di dati letti, la loro distribuzione tra gli utenti 1 e 2 e i valori ignorati (ad es. già noti).<p class='info'><b>Nota</b>: se uno sfigmomanometro USB può essere utilizzato solo come root in Linux, creare una regola udev:",
        "005": "Scollegare e ricollegare lo sfigmomanometro"
    },
    "01-04": {
        "001": "Importa da input",
        "002": "Se vuoi inserire uno o più valori misurati manualmente, puoi farlo qui:",
        "003": "Per un numero maggiore di valori, dovrebbe essere preferibile l'importazione tramite un <a href='02-01.html'>file</a>.<p>Imposta l'ora desiderata e inserisci i singoli valori della pressione sanguigna. Determinare inoltre se la misurazione ha mostrato irregolarità e, se necessario, inserire un commento sulla misurazione.<p>Utilizzando il pulsante \"Crea\" è ora possibile creare o rimuovere nuovamente il record di dati con \"Elimina\".<p>Inserendo valori multipli, l'opzione info può essere disattivata per non dover confermare continuamente il risultato."
    },
    "01-05": {
        "001": "Analisi dei dati",
        "002": "Per poter valutare determinati record di dati, è possibile avviare una query SQL:",
        "004": "Parametro",
        "005": "Significato",
        "006": "Pressione sanguigna sistolica",
        "007": "Pressione sanguigna diastolica",
        "008": "Pressione del polso",
        "009": "Battito cardiaco",
        "010": "Battito cardiaco irregolare",
        "011": "Invisibile",
        "012": "Commento",
        "013": "Data",
        "015": "Facendo clic sulla rispettiva intestazione di colonna, l'ordine di ordinamento può essere adattato di conseguenza, ad es. ascendente per battito cardiaco.",
        "014": "Ora",
        "003": "Seleziona una delle query SQL predefinite o inserisci la tua query e confermala con il tasto INVIO.<p>Il risultato della tua query viene ora mostrato o viene visualizzato un messaggio di errore. In caso di messaggio di errore, modificare i parametri della query finché non vengono trovati record di dati adeguati.<p>È possibile analizzare le seguenti query:<br>",
        "016": "Movimento"
    },
    "01-06": {
        "001": "Aggiornamento Online",
        "002": "Se durante il controllo dell'aggiornamento è stata trovata una nuova versione, viene visualizzata la seguente nota:",
        "003": "Dettagli elenca tutte le informazioni importanti relative a nuove funzioni o problemi risolti. Puoi decidere se installare o ignorare l'aggiornamento.<p>Selezionando \"Download\", la nuova versione viene caricata e viene visualizzato lo stato di avanzamento corrente. Il processo può essere annullato in qualsiasi momento, se necessario. Dopo il completamento, la nuova versione può essere avviata automaticamente dalla directory di download dopo la conferma. Se necessario, copia l'aggiornamento manualmente in un'altra directory in un secondo momento.<p class='info'><b>Nota</b>: nessun dato viene trasmesso al server ma viene caricato solo un piccolo file JSON che contiene le informazioni sulla versione!"
    },
    "02-01-01": {
        "003": "Se una riga inizia con un \"1\" è per l'utente 1, un \"2\" sta per utente 2 (UTENTE).<p>La data (DATA) e l'ora (ORA) seguono nella forma GG.MM.AAAA e HH.MM.SS.<p>Poi arrivano i valori misurati per la pressione arteriosa sistolica (SYS) e diastolica (DIA) e le Pulsazioni (BPM).<p>Infine, c'è la segnalazione per irregolare (IHB) e nascosta (INV) così come un commento facoltativo (MSG).",
        "002": "Un file CSV deve essere strutturato come segue:",
        "001": "Importa da CSV"
    },
    "02-01-02": {
        "001": "Importa da XML",
        "002": "Un file XML deve essere strutturato come segue:",
        "003": "I set di dati per l'utente 1 si trovano nell'area \"U1\", per l'utente 2 in \"U2\".<p>Ogni set di dati si trova in un'area \"record\". Questo contiene la data e l'ora nella forma GG.MM.AAAA e HH.MM.SS.<p>Poi arrivano le letture della pressione sanguigna sistolica (sis) e diastolica (dia) e delle Pulsazioni (bpm).<p>Infine , la segnalazione per irregolare (ihb) e nascosta (inv) e un commento facoltativo (msg)."
    },
    "02-01-03": {
        "001": "Importa da JSON",
        "002": "Un file JSON deve essere strutturato come segue:",
        "003": "I set di dati per l'utente 1 si trovano nell'area \"U1\", per l'utente 2 in \"U2\".<p>Ogni set di dati si trova in un'area \"{ }\". Questo contiene la data e l'ora nella forma GG.MM.AAAA e HH.MM.SS.<p>Quindi vengono le letture della pressione sanguigna sistolica (sis) e diastolica (dia) e delle Pulsazioni (bpm).<p> Infine, la segnalazione per irregolare (ihb) e nascosta (inv) e un commento facoltativo (msg)."
    },
    "02-02-01": {
        "003": "ulteriore elaborazione automatizzata tramite script o applicazioni",
        "004": "elaborazione manuale in un foglio di calcolo",
        "002": "Un file CSV è adatto per i seguenti casi d'uso, ad esempio:",
        "001": "Esporta in CSV"
    },
    "02-02-02": {
        "001": "Esporta in XML",
        "003": "ulteriore elaborazione automatizzata tramite script o applicazioni",
        "004": "visualizzazione interattiva in un browser web",
        "002": "Un file XML è adatto per i seguenti casi d'uso, ad esempio:"
    },
    "02-02-03": {
        "004": "preferito per JavaScript",
        "002": "Un file JSON è adatto per i seguenti casi d'uso, ad esempio:",
        "001": "Esporta in JSON",
        "003": "ulteriore elaborazione automatizzata tramite script o applicazioni"
    },
    "02-02-04": {
        "001": "Esporta in SQL",
        "002": "Un file SQL è adatto per i seguenti casi d'uso, ad esempio:",
        "003": "backup/ripristino diretto per UBPM",
        "004": "elaborazione esterna in applicazioni di database"
    },
    "02-03": {
        "001": "Stampa dati",
        "002": "Se desideri presentare i tuoi dati al medico curante per la valutazione, ovviamente puoi anche <a href='02-03-02.html'>stamparli</a>.<p>Per risparmiare carta, è si consiglia di creare e controllare un'<a href='02-03-01.html'>anteprima</a> prima della stampa.<p>L'anteprima o la stampa corrisponde sempre alla visualizzazione attualmente selezionata. Pertanto, passa all'utente desiderato tramite la barra degli strumenti e imposta il periodo da visualizzare prima di eseguire l'azione desiderata.<p>Nelle <a href='01-02-04.html'>Impostazioni</a> puoi specificare se le Pulsazioni deve essere stampata insieme alla pressione sanguigna o su un foglio separato."
    },
    "02-04": {
        "001": "Migrare i dati",
        "002": "Le misurazioni già esistenti possono essere migrate dal software del produttore:",
        "003": "Per prima cosa esporta i tuoi dati dal programma utilizzato in precedenza come file CSV. Se viene offerto solo il formato XLS, utilizzalo e poi convertilo in formato CSV con un foglio di calcolo come Excel.<p>Ora carica questo file e seleziona il programma corrispondente dall'elenco, se disponibile. Attualmente sono supportati i seguenti programmi:",
        "004": "Se il tuo programma non è ancora supportato, devi impostare tu stesso i parametri e le posizioni. Per fare ciò, guarda il file CSV e prova a trovare i parametri e le posizioni corretti utilizzando i programmi di esempio. Utilizzare la selezione \"Personalizzata\" per questo, poiché verrà salvata e ripristinata. In alternativa, puoi inviarmi il CSV/XLS in modo che possa supportare direttamente il programma.<p>Non appena la migrazione del test non dà più errori e di conseguenza vengono visualizzati i valori corretti, la migrazione può essere avviata.< p><p><p class='info'><b>Nota</b>: se il nome del file contiene il produttore, il programma corrispondente viene selezionato automaticamente. Inoltre viene selezionato automaticamente l'utente 2, se è contenuto un 2.<p><h4>Spiegazione dei parametri di data e ora</h4>",
        "005": "Parametro",
        "006": "Significato",
        "007": "Commento",
        "008": "Giorno, 1...31",
        "009": "Giorno, 01...31",
        "012": "Mese, 1...12",
        "013": "Mese, 01...12",
        "014": "Mese abbreviato, ad es. Gen",
        "015": "Mese esteso, ad es. Gennaio",
        "024": "Secondi, 0...59",
        "026": "Millisecondi, 0...999",
        "027": "Millisecondi, 0000...999",
        "028": "AM/PM inferiore",
        "029": "AM/PM superiore",
        "011": "Giorno esteso, ad es. Lunedì",
        "025": "Secondi, 00...59",
        "030": "Timezone, ad es. CEST",
        "018": "Ore, 0...23 / 1...12",
        "019": "Ore, 00...23 / 01...12",
        "020": "Ore, 0...23",
        "021": "Ore, 00...23",
        "022": "Minuti, 0...59",
        "023": "Minuti, 00...59",
        "010": "Giorno abbreviato, ad es. Lun",
        "016": "Anno 00...99",
        "017": "Anno xxxx",
        "031": "attiva il campo della lingua, eventualmente un input ISO 639-1 come ad esempio \"it\""
    },
    "02-03-01": {
        "001": "Anteprima",
        "002": "Per assicurarsi che l'output corrisponda realmente al modulo desiderato, prima della stampa, generare un'anteprima della rispettiva vista.",
        "003": "Se la visualizzazione corrisponde al risultato desiderato, è possibile avviare l'output alla stampante premendo il simbolo della stampante in alto a destra."
    },
    "02-03-02": {
        "001": "Stampa",
        "002": "Selezionare la stampante desiderata dalla finestra di dialogo di stampa e modificare le impostazioni o le proprietà come desiderato.<p>Dopo un breve periodo di preparazione, l'output sulla stampante si avvia e le stampe possono essere ricevute poco dopo."
    },
    "03": {
        "001": "Plugin Dispositivo",
        "003": "installare il software del produttore e l'analizzatore di protocollo Wireshark (https://wireshark.org)",
        "004": "leggere i valori misurati dal misuratore di pressione sanguigna tramite il software del produttore e registrare il traffico dati nelle opzioni di sviluppo Wireshark (USB) o Android (Bluetooth)",
        "005": "valutare il traffico di dati raccolti tra il computer e lo sfigmomanometro in Wireshark",
        "006": "rilevare i comandi e le risposte inviati",
        "007": "trovare i valori misurati nelle risposte",
        "009": "programmare un plugin basato sui risultati di cui sopra",
        "002": "La lettura diretta dei valori misurati dallo sfigmomanometro avviene tramite plug-in aggiuntivi. Per programmare un plug-in per uno specifico sfigmomanometro, è necessario prima conoscere il protocollo di trasmissione.<p>Per determinarlo, procedere come segue:",
        "008": "replicare la comunicazione utilizzando strumenti esterni come hidapitester (https://github.com/todbot/hidapitester) per dispositivi USB-HID o bettercap (https://www.bettercap.org) per dispositivi Bluetooth",
        "011": "I valori devono ovviamente essere adattati al dispositivo esistente: nell'esempio 0590 sarebbe l'ID produttore di OMRON e 0090 l'ID dispositivo di M400IT/M500IT. 9 byte vengono inviati allo sfigmomanometro e 25 byte vengono letti come risposta.<p><h4>I comandi bettercap utili per iniziare con il Bluetooth potrebbero essere:</h4>",
        "010": "Sembra in realtà abbastanza semplice, ma di solito non lo è. ;-)<p>Ho anche bisogno di 1-2 giorni prima di poter affrontare il mio M500IT, quindi sii paziente e non arrenderti immediatamente! <p><h4>Ecco qualche altro suggerimento:</h4><p>Leggi i valori dal misuratore di pressione sanguigna e convertili da decimale a esadecimale, poiché questi possono essere trovati meglio nel record di dati.<p> Eventualmente si deve aggiungere anche un certo valore (es. 25 alla pressione sistolica) per arrivare al valore atteso. Inoltre, i valori possono essere composti da più byte o bit!<p><h4>I comandi hidapitester utili per iniziare con USB-HID potrebbero essere:</h4>",
        "012": "I valori devono ovviamente essere adattati al dispositivo esistente: nell'esempio 00:DE:AD:BE:EF:00 sarebbe l'indirizzo MAC del dispositivo, DB5B55E0AEE711E1965E0002A5D5C51B l'UUID del servizio e 08000000100018 il valore da scrivere.<p >Posso rispondere volentieri alle domande, ma non posso programmare plugin per misuratori di pressione sanguigna che non possiedo!<p>Tuttavia, finché la comunicazione tramite hidapitester o bettercap funziona e i dati si trovano nelle risposte posso provarlo blind e fai il test.<p class='info'><b>Nota</b>: un dispositivo USB può anche essere condiviso su Internet usando usbip, quindi posso accedervi."
    },
    "01-02-03": {
        "001": "Dispositivo",
        "002": "Tutte le impostazioni rilevanti per il dispositivo vengono effettuate qui:",
        "003": "Se si dispone di uno sfigmomanometro supportato, è possibile attivarlo qui per leggere direttamente i valori misurati. Vengono visualizzate alcune informazioni per lo sfigmomanometro selezionato, che possono essere utilizzate per mostrare il sito Web del produttore o per contattare il gestore del plug-in via e-mail.<p>Se non sei sicuro che lo sfigmomanometro sia quello giusto, può visualizzare la sua immagine e confrontarla con la tua.<p>Inoltre, questo ti dà accesso immediato al manuale del misuratore di pressione sanguigna."
    },
    "02": {
        "001": "Gestione dati",
        "002": "I record possono essere <a href='02-01.html'>importati</a>, <a href='02-02.html'>esportati</a>, <a href='02-04.html' >migrati</a> e <a href='02-03.html'>stampati</a>."
    },
    "02-01": {
        "001": "Importa dati",
        "002": "I valori misurati possono entrare nell'applicazione in diversi modi: manuale <a href='01-04.html'>input</a>, da un <a href='02-01-01.html'>CSV</a> , <a href='02-01-02.html'>XML</a>, <a href='02-01-03.html'>JSON</a> o <a href='02-01- 04.html'>file SQL</a>, nonché direttamente da un <a href='01-03.html'>dispositivo</a> supportato.<p><h4>Importa da input</h4> L'inserimento manuale è utile, ad esempio, quando è necessario aggiungere una misurazione esterna presso lo studio del medico.<h4>Importa da file</h4>L'importazione da un file è raramente necessaria, ad esempio se l'applicazione viene utilizzata per la prima volta e i dati da un'altra fonte deve ancora essere letto o deve essere ripristinato un backup dopo una nuova installazione.<p>Selezionare il percorso contenente il file da importare nella finestra di dialogo di importazione. Per impostazione predefinita, il percorso dei documenti è preimpostato.<p>Quindi seleziona il tipo di file CSV, XML, JSON o SQL desiderato. Ora tutti i file corrispondenti al tipo di file dovrebbero essere visualizzati nella cartella selezionata. Aprire il file desiderato per l'importazione.<p>Al termine dell'importazione, la finestra di dialogo si chiude automaticamente e viene visualizzato un breve riepilogo sul numero di record letti, la loro distribuzione tra gli utenti 1 e 2 e quelli ignorati (es. già noti ) valori.<h4>Importa da dispositivo</h4>Nel normale funzionamento, i dati devono essere importati direttamente dal dispositivo e aggiunti a quelli già esistenti. In questo modo si ottiene una registrazione continua per qualsiasi periodo di tempo, anche se lo stesso misuratore di pressione sanguigna ha solo una memoria limitata per utente."
    },
    "02-01-04": {
        "001": "Importa da SQL",
        "002": "Un file SQL deve essere strutturato come segue:",
        "003": "I set di dati per l'utente 1 si trovano nella tabella \"U1\", per l'utente 2 in \"U2\".<p>Questo contiene data e ora nella forma GG.MM.AAAA e HH.MM.SS, valori misurati per sistolica e diastolica pressione sanguigna così come il battito cardiaco, la segnalazione per irregolari e nascosti e un commento facoltativo."
    },
    "02-02": {
        "001": "Esporta dati",
        "002": "I valori misurati possono essere esportati nei formati <a href='02-02-01.html'>CSV</a>, <a href='02-02-02.html'>XML</a>, <a href='02-02-03.html'>JSON</a>, <a href='02-02-04.html'>SQL</a> e <a href='02-02-05.html'>PDF</a> per l'archiviazione o la condivisione. Il formato da preferire dipende dall'uso desiderato.<h4>Esporta su file</h4>Seleziona il percorso in cui salvare il file nella finestra di dialogo di esportazione. Per impostazione predefinita, il percorso dei documenti è preimpostato. Dovrebbero essere visualizzati tutti i file già esistenti nel formato file selezionato.<p>Ora inserisci il nome file desiderato o accetta il valore predefinito suggerito.<p>Salva i tuoi record nel formato selezionato."
    },
    "02-02-05": {
        "003": "Archiviazione di viste specifiche",
        "001": "Esporta in PDF",
        "002": "Un file PDF è adatto per i seguenti casi d'uso, ad esempio:"
    },
    "01-07": {
        "001": "Donazione",
        "002": "Se vuoi sostenere il progetto, puoi farlo qui:"
    }
}
