{
    "00": {
        "001": "Powitanie",
        "002": "Witamy w UBPM, uniwersalnym menedżerze ciśnienia krwi dla systemów Windows, Linux i macOS!",
        "004": "Producent",
        "005": "Model",
        "006": "Opis",
        "007": "Interfejs",
        "003": "Dzięki tej aplikacji możesz zarządzać swoimi danymi dotyczącymi ciśnienia krwi z domowego komputera, bez przesyłania prywatnych informacji o swoim zdrowiu do firm i ujawniania ich w Internecie.<p>Zapisy można wykonywać ręcznie <a href='01-04.html '>wprowadzony</a>, <a href='02-01.html'>odczytany</a> z pliku lub bezpośrednio <a href='01-03.html'>odczytany</a> z ciśnieniomierza.<p>Obecnie obsługiwane są następujące ciśnieniomierze:",
        "008": "Kolejne ciśnieniomierze można dodać za pomocą <a href='03.html'>interfejsu wtyczki</a>.<p>Jeśli masz ciśnieniomierz, który nie jest jeszcze obsługiwany, poznaj jego protokół transmisji i możesz go zaprogramować, Chętnie pomogę Ci w rozwoju. Jeśli zaprogramowałeś już wtyczkę i chciałbyś udostępnić ją innym użytkownikom, skontaktuj się ze mną.<p>Nawet jeśli nie możesz samodzielnie zaprogramować, ale uważasz, że aplikacja jest przydatna, możesz wesprzeć dalszy rozwój niewielką darowizną. Można to wykorzystać na przykład do zakupu i integracji kolejnych ciśnieniomierzy. Mile widziane są również wyrzucone i wcześniej nieobsługiwane ciśnieniomierze, które mogą być wadliwe, ale nadal są rozpoznawane przez komputer. Dziękuję bardzo!<p>Teraz dowiedz się więcej o aplikacji i jej funkcjach na kolejnych stronach.<p>Interaktywne <font color='blue'><u>odniesienia</u></font> będą niebieskie , <font color='green'>wskazówki</font> zielone, <font color='red'>ostrzeżenia</font> czerwone i <font color='brown'>konfiguracje</font> brązowe…"
    },
    "01": {
        "001": "Interfejs użytkownika",
        "002": "Aplikacja składa się z okna głównego i różnych okien dialogowych, które zapewniają określone funkcje.<p>Wybierz element, o którym chcesz dowiedzieć się więcej:<br>",
        "003": "Okno główne",
        "004": "Ustawienia",
        "006": "Wprowadź danych ręcznie",
        "007": "Analiza danych",
        "008": "Aktualizacja",
        "005": "Import z urządzenia"
    },
    "01-01": {
        "003": "Wykres",
        "004": "Tabela",
        "005": "Statystyki",
        "001": "Okno główne",
        "002": "Tutaj masz przegląd zebranych danych dotyczących ciśnienia krwi. Interfejs użytkownika został zaprojektowany tak, aby był jak najprostszy, aby nawet starsi użytkownicy mogli szybko odnaleźć drogę.<p>Do wszystkich ważnych funkcji można wygodnie uzyskać dostęp za pomocą paska narzędzi. Funkcje, które są używane rzadziej, można uzyskać za pomocą paska menu.<p>Główne okno podzielone jest na 3 widoki:",
        "006": "Jeśli dane partnera są również zarządzane, analizę można przełączać za pomocą symboli dla użytkowników (<font color='red'>A/B</font>) na pasku narzędzi. Wyświetlacz LCD (<font color='red'>C</font>) pokazuje liczbę wszystkich rekordów danych dla aktualnie wybranego użytkownika.<p>Preferowany tryb czasu jest ustawiany za pomocą symbolu (<font color='red' >D</font>) obok niego. Na przykład. Można wyświetlić „Tygodniowy” (poniedziałek – niedziela) lub „Ostatnie 7 dni” (np. środa – wtorek).<p>Można użyć wyboru daty i godziny (<font color='red'>E</font>) aby przejść bezpośrednio do wybranego dnia lub godziny. <p>W przeciwnym razie żądany okres można ustawić za pomocą przycisków na dole, a następnie zmienić za pomocą kółka myszy lub przycisków wstecz/do przodu (<font color='red'>F/G</font>) na górze . Przytrzymując klawisz SHIFT, możesz przejść bezpośrednio do pierwszego/ostatniego rekordu."
    },
    "01-01-01": {
        "001": "Widok wykresu",
        "004": "Klikając na punkt pomiarowy, można go usunąć, ukryć lub edytować."
    },
    "01-01-02": {
        "001": "Widok tabeli"
    },
    "01-01-03": {
        "001": "Widok statystyk"
    },
    "01-02": {
        "001": "Ustawienia"
    },
    "01-02-01": {
        "001": "Baza danych",
        "002": "Wszystkie ustawienia istotne dla bazy danych są dokonywane tutaj:"
    },
    "01-02-02": {
        "001": "Użytkownik"
    },
    "01-02-03": {
        "001": "Urządzenie"
    },
    "01-02-04": {
        "001": "Wykres"
    },
    "01-02-05": {
        "001": "Tabela"
    },
    "01-02-06": {
        "001": "Statystyka"
    },
    "01-02-07": {
        "001": "E-Mail"
    },
    "01-02-08": {
        "001": "Wtyczka"
    },
    "01-02-09": {
        "001": "Aktualizacja"
    },
    "01-03": {
        "001": "Importowanie z urządzenia"
    },
    "01-04": {
        "001": "Wprowadzanie danych ręcznie",
        "002": "Jeśli chcesz wprowadzić jedną lub więcej wartości pomiarowych ręcznie, możesz to zrobić tutaj:"
    },
    "01-05": {
        "001": "Analiza danych",
        "004": "Parametr",
        "005": "Znaczenie",
        "006": "Skurczowe ciśnienie krwi",
        "007": "Rozkurczowe ciśnienie krwi",
        "008": "Ciśnienie tętna",
        "009": "Bicie serca",
        "010": "Nieregularne bicie serca",
        "011": "Niewidoczny",
        "016": "Ruch",
        "012": "Komentarz",
        "013": "Data",
        "014": "Czas"
    },
    "01-06": {
        "001": "Aktualizacja online",
        "002": "Jeśli podczas sprawdzania aktualizacji znaleziono nową wersję, pojawia się następująca uwaga:"
    },
    "02": {
        "001": "Zarządzanie danymi"
    },
    "02-01": {
        "001": "Importowanie danych"
    },
    "02-01-01": {
        "001": "Importuj z CSV",
        "002": "Plik CSV musi mieć następującą strukturę:"
    },
    "02-01-02": {
        "001": "Import z XML",
        "002": "Plik XML musi mieć następującą strukturę:"
    },
    "02-01-03": {
        "001": "Import z JSON",
        "002": "Plik JSON musi mieć następującą strukturę:"
    },
    "02-01-04": {
        "001": "Import z SQL",
        "002": "Plik SQL musi mieć następującą strukturę:"
    },
    "02-02": {
        "001": "Eksportowanie danych",
        "002": "Zmierzone wartości mogą być eksportowane w formatach <a href='02-02-01.html'>CSV</a>, <a href='02-02-02.html'>XML</a>, <a href='02-02-03.html'>JSON</a>, <a href='02-02-04.html'>SQL</a> i <a href='02-02-05.html'>PDF</a> do archiwizacji lub udostępniania. Który format powinien być preferowany zależy od pożądanego wykorzystania.<h4>Eksport do pliku</h4>Wybierz ścieżkę, gdzie plik powinien być zapisany w oknie dialogowym eksportu. Domyślnie ustawiona jest ścieżka dokumentów. Powinny zostać wyświetlone wszystkie istniejące tam już pliki w wybranym formacie.<p>Teraz wprowadź pożądaną nazwę pliku lub zaakceptuj sugerowaną wartość domyślną.<p>Zapisz zapisy w wybranym formacie."
    },
    "02-02-02": {
        "002": "Plik XML jest odpowiedni dla następujących przypadków użycia, na przykład:",
        "001": "Eksportuj do XML",
        "003": "zautomatyzowane dalsze przetwarzanie przez skrypty lub aplikacje",
        "004": "interaktywne wyświetlanie w przeglądarce internetowej"
    },
    "02-02-01": {
        "001": "Eksportuj do CSV",
        "002": "Plik CSV jest odpowiedni dla następujących przypadków użycia, na przykład:",
        "003": "zautomatyzowane dalsze przetwarzanie przez skrypty lub aplikacje",
        "004": "ręczne przetwarzanie w arkuszu kalkulacyjnym"
    },
    "02-02-03": {
        "001": "Eksportuj do JSON",
        "003": "zautomatyzowane dalsze przetwarzanie przez skrypty lub aplikacje",
        "002": "Plik JSON jest odpowiedni dla następujących przypadków użycia, na przykład:",
        "004": "preferowany dla JavaScript"
    },
    "02-02-04": {
        "001": "Eksportuj do SQL",
        "002": "Plik SQL jest odpowiedni dla następujących przypadków użycia, na przykład:",
        "003": "bezpośrednia kopia zapasowa/przywracanie danych dla UBPM (Uniwersalny menadżer ciśnienia krwi)",
        "004": "przetwarzanie zewnętrzne w aplikacjach baz danych"
    },
    "02-02-05": {
        "001": "Eksportuj do PDF",
        "002": "Plik PDF jest odpowiedni dla następujących przypadków użycia, na przykład:",
        "003": "archiwizacja danych"
    },
    "02-03": {
        "001": "Drukowanie danych",
        "002": "Jeśli chcesz przedstawić dane do oceny lekarzowi prowadzącemu, możesz je oczywiście także <a href='02-03-02.html'>wydrukować</a>.<p>Aby zaoszczędzić papier, zaleca się utworzenie i sprawdzenie <a href='02-03-01.html'>podglądu</a> przed wydrukowaniem.<p>Podgląd lub wydruk zawsze odpowiada aktualnie wybranemu wyświetlaczowi. Dlatego należy przełączyć się na żądanego użytkownika za pomocą paska narzędzi i ustawić okres, który ma być przeglądany przed wykonaniem żądanej czynności.<p>W <a href='01-02-04.html'>Ustawieniach</a> można określić, czy tętno ma być drukowane razem z ciśnieniem krwi, czy na osobnym arkuszu."
    },
    "02-04": {
        "001": "Migracja danych",
        "005": "Parametr",
        "006": "Znaczenie",
        "007": "Komentarz",
        "002": "Już istniejące pomiary można przenieść z oprogramowania producenta:",
        "008": "Dzień, 1...31",
        "009": "Dzień, 01...31",
        "012": "Miesiąc, 1...12",
        "013": "Miesiąc, 01...12",
        "010": "Dzień krótki, np. pon",
        "011": "Dzień długi, np. poniedziałek",
        "014": "Krótki miesiąc, np. sty",
        "015": "Długi miesiąc, np. styczeń",
        "016": "Rok 00...99",
        "017": "Rok xxxx",
        "018": "Godzina, 0...23 / 1...12",
        "019": "Godzina, 00...23 / 01...12",
        "020": "Godzina, 0...23",
        "021": "Godzina, 00...23",
        "022": "Minuta, 0...59",
        "023": "Minuta, 00...59",
        "024": "Sekunda, 0...59",
        "025": "Sekunda, 00...59",
        "030": "Strefa czasowa, np. CEST",
        "026": "Milisekunda, 0...999",
        "027": "Milisekunda, 000...999"
    },
    "02-03-01": {
        "001": "Podgląd"
    },
    "02-03-02": {
        "001": "Drukowanie"
    },
    "03": {
        "001": "Wtyczki urządzeń"
    }
}
